1 10 20
100 200 125
201 210 89
900 1000 174
51022 51902 309
53200 53943 322
59070 56109 304
57256 58157 273
50982 58051 340
58770 59896 273
53512 58425 322
54756 53496 260
56045 52775 322
53883 59199 322
58246 52941 322
359734 211857 443
403206 254469 441
420879 359642 449
120897 443235 449
257579 366018 441
220416 354809 443
330674 223432 443
242145 433178 449
173593 137745 383
411461 178208 449
259846 290947 407
401187 455901 449
291649 322826 384
432335 421768 418
195129 157843 370
219099 416001 449
487025 162558 449
389286 125367 443
304371 346176 441
311222 199985 443
311340 362714 441
163254 317766 443
219383 375264 443
286478 236230 407
274124 161722 443
297314 265515 407
391655 366177 436
426668 475525 444
198472 138764 383
165010 419401 449
127850 242826 443
378179 461970 449
106439 412364 449
289933 315987 384
167965 294399 443
303175 238535 407
471920 253405 449
329387 462611 449
452675 261509 449
122007 138395 344
388679 218950 443
220972 222203 355
345389 242117 407
418042 304650 449
375010 293460 441
446102 312606 449
192854 394607 443
283174 268810 407
201656 243856 443
233782 301588 407
265169 200529 443
263287 200517 443
499498 188122 449
429042 470525 444
192280 419440 449
324410 443376 449
337407 132937 443
232598 233224 368
131121 441389 449
227477 218420 368
340191 332323 366
216023 168369 373
134207 486734 449
351255 317772 441
393584 346324 436
182476 276492 443
495183 440996 444
324088 291639 384
144383 256858 443
231853 371822 441
335072 442707 449
393061 340621 441
105956 128529 354
386160 421570 449
327268 396027 441
176999 318011 443
178542 325868 443
153688 306072 443
228652 414445 449
421429 165756 449
409275 441410 449
216596 163330 386
111580 402328 443
195059 469909 449
312149 453007 449
192974 258531 443
134795 181151 383
479215 350106 449
476723 126431 449
181522 407463 443
118615 465473 449
241274 162571 443
431958 314027 449
348422 297495 441
494810 307577 449
262915 432224 449
180406 257798 443
239237 246727 368
228700 125791 386
134434 227010 386
106096 338120 443
142613 106531 375
218326 353450 443
191291 433538 449
410807 305876 449
297453 235322 407
310857 369215 441
470763 446376 444
133457 221696 386
423636 252677 449
315056 425523 449
376372 254674 441
231810 423846 449
247326 296152 407
312424 108808 443
360649 208014 443
249619 213983 443
164320 155895 383
443218 160655 449
431423 262806 449
149051 474901 449
382856 415656 449
429714 191982 449
330898 345368 366
232090 210649 443
130992 192911 383
136030 278441 443
167607 499878 449
437137 350744 449
389183 138205 443
253195 319873 407
281039 273686 389
241527 178125 443
411534 346272 449
371207 466137 449
488184 193847 449
206723 352774 443
425183 342061 449
247228 276376 407
276520 199226 443
285945 381002 441
496688 336847 449
341924 161867 443
412294 223248 449
256597 482488 449
225588 120389 386
315273 341942 384
231337 441741 449
292017 261280 407
216094 361738 443
301043 461927 449
233011 163632 443
175053 222386 386
349679 424546 449
222301 357517 443
200440 362424 443
125950 188754 383
287667 428221 449
178349 496425 449
155571 278072 443
135046 444669 449
163740 251281 443
386788 452278 449
393107 143888 443
212817 202729 373
238170 138467 443
349642 389557 436
126501 495215 449
436297 146519 449
405523 147917 443
441484 369895 449
378300 432513 449
314255 263292 407
153913 189159 383
162581 345727 443
319789 209041 443
271974 452500 449
151911 346654 443
225498 494772 449
299771 224661 443
134230 190466 383
396507 183794 443
306457 394916 441
318844 396918 441
123227 430021 449
376039 138197 443
268618 332763 407
411645 273816 449
486036 164407 449
341046 102486 443
462148 173720 449
443015 234746 449
173023 134232 383
252272 435514 449
208902 212552 355
227413 155841 386
383846 267853 441
206007 117300 383
434085 170501 449
117008 296603 443