823703 400954 509
678025 347989 509
116734 800956 509
380131 910777 525
926874 52107 525
902889 338726 525
518760 684462 509
219767 557881 470
49174 150187 375
638188 354641 509
20793 419112 449
957121 999037 458
708222 846516 525
458897 736290 509
654243 421760 509
532098 974917 525
999658 554925 525
131289 155368 375
709410 696453 504
748603 80866 509
480093 136441 449
969828 23535 525
609303 792401 509
547954 117854 470
490577 93224 449
983658 124189 525
628809 401142 509
331794 109441 443
867719 708020 525
542380 91524 470
562232 981788 525
508876 463236 426
736732 626399 504
34872 514685 470
763765 27162 509
913756 569704 525
422039 164131 449
299880 42420 443
766500 92220 509
473844 315143 449
550314 425094 470
680424 753030 504
178948 804404 509
104546 208455 383
719262 451739 509
863356 367437 525
360109 96687 443
316014 701628 509
710595 86962 509
548150 939906 525
228479 861278 525
754098 502521 509
123646 492321 449
806056 384371 509
747292 592857 509
942061 90817 525
920904 328995 525
919280 957106 507
888935 357587 525
904256 527430 525
665952 213240 509
969711 631378 525
288758 758066 509
646777 428668 509
191946 931247 525
574290 526072 452
133926 273257 443
527758 7572 470
416188 426069 418
176680 586599 470
812742 233129 509
541926 384361 470
358619 554978 470
953703 854483 507
555563 164721 470
270506 423783 449
601480 502686 470
173118 563027 470
546588 846890 525
781893 557478 509
626935 199466 509
18854 40073 324
15643 762292 509
195504 969843 525
244820 717923 509
122742 533691 470
853682 719960 525
426912 646149 509
839534 899223 445
93648 35746 351
764842 859661 525
894343 535485 525
72049 250332 443
783845 601890 509
590855 565031 434
758135 217699 509
534800 277380 470
787335 26100 509
861380 482677 525
707450 560700 509
857844 74225 525
136666 528569 470
450545 201334 449
486106 844036 525
992307 973288 427
883614 219130 525
356745 968606 525
898737 704687 525
752362 394155 509
57617 775883 509
814437 9628 509
621326 27112 470
127370 30551 354
307250 364960 441
430291 921179 525
796297 616497 509
321632 858905 525
812078 492690 509
863497 665306 525
893660 156069 525
997002 463677 525
482142 671327 509
159980 143674 383
671979 952643 525
497245 238476 449
958475 973559 458
118783 209032 383
497566 981562 525
171447 112808 383
562925 665704 509
295649 451567 449
601166 517080 452
587653 781221 509
395092 27809 443
856125 141944 525
954306 252067 525
439504 818376 509
401184 940568 525
856879 253394 525
798827 398353 509
541053 326715 470
365078 846674 525
591955 791533 509
729258 737325 424
157436 556677 470
481583 156793 449
289132 750225 509
667281 379358 509
12571 677314 509
523557 856242 525
175302 426595 449
66501 606024 470
696879 687404 442
870535 890799 445
71212 796011 509
348150 330265 441
123331 70722 354
111809 279569 443
520242 880368 525
7107 109313 354
73071 846514 525
457498 366981 449
810306 673003 504
275104 635009 509
435538 136406 449
299137 502997 449
548364 746765 509
764190 282921 509
617413 58590 470
727722 948198 525
359897 831559 509
89880 596353 470
46967 662427 509
383685 148426 443
101188 120917 354
975656 664736 525
528368 329047 470
330985 402900 441
5746 208864 383
744218 583548 509
663839 154104 509
459917 223265 449
600417 737623 509
781325 349692 509
133211 541196 470
646077 465704 509
923991 478522 525
560119 499316 470
757261 888280 525
658715 494680 509
484292 410680 444
274296 864989 525
644769 769248 504
105265 566589 470
837208 727449 468
686588 833748 504
42310 242806 443
939213 768194 525
561551 819816 509
506647 389046 449
354645 713576 509
50562 886665 525
57431 877246 525
505001 657918 509
211297 147100 383
718788 28817 509
933362 564602 525
496157 347047 449
848149 669920 525
655812 788252 504
383300 489961 449
473028 978520 525
198122 643456 509
757873 614123 509
929107 286523 525
303615 216630 443
781279 424573 509
720272 868813 525
333743 869455 525
739585 466750 509
350277 33281 443
494415 658291 509
52708 89725 351
877716 194927 525
288408 148566 443
244559 770888 509
84542 3221 351
428122 849322 525
336027 950920 525
124775 637071 509
545713 257459 470
935394 584267 525
61684 675056 509
261454 733411 509
586745 456652 470
690629 522364 509
811624 962172 525
103799 39157 351
781129 991736 525
833407 922405 525
764675 517800 509
994567 14731 525
396893 626962 509
288113 382582 441
32963 389637 443
30549 746459 509
47884 431327 449
482213 560523 470
868773 634895 525
11648 945090 525
869146 290458 525
636573 421316 509
17472 995188 525
434300 378079 449
18134 610067 470
70730 69591 312
339889 38550 443
80521 495257 449
46758 754071 509
710217 114786 509
976898 337089 525
380836 308459 441
273810 145812 443
675317 57876 509
978459 512902 525
162969 190029 365
981824 15964 525
810218 305944 509
908563 880739 445
494371 439428 444
854872 24848 525
38036 775690 509
561484 961884 525
169859 651197 509
267844 163582 443
365704 259236 441
511383 801300 509
670183 397106 509
192992 545665 470
503874 648052 509
440623 729661 509
661272 783376 504
562344 593806 434
805200 171887 509
806861 836352 450
678269 850604 525
193992 733094 509
650937 463901 509
418781 760760 509
237200 660909 509
449842 280102 449
442168 395308 449
836771 911952 525
764633 460179 509
483533 183943 449
891174 661966 525
522189 752293 509
87942 677644 509
97581 300913 443