860566 313606 525
418331 314077 449
461535 545833 470
303128 649636 509
916665 340509 525
684366 970339 525
154126 714847 509
225776 899948 525
773626 752670 468
190546 262159 443
268015 121700 443
469453 976203 525
226505 582301 470
808813 489375 509
459098 536888 470
422498 731748 509
760160 892861 525
153686 130107 375
463640 641809 509
489736 176105 449
33228 593857 470
27496 407948 443
677875 648404 442
436557 435384 325
386342 831149 509
574434 814548 509
834095 82182 509
170303 162227 352
331607 441027 449
412921 888354 525
355268 841936 525
853510 321051 525
230367 206362 386
265849 800308 509
220219 899392 525
493528 524380 470
616306 903097 525
858215 547255 525
421395 252106 449
403053 346041 436
870889 375360 525
101678 803878 509
347258 992875 525
176097 287016 443
208209 127490 383
835579 733907 468
671326 608941 509
73931 319720 443
176234 171247 347
643947 311408 509
579899 874277 525
965543 186486 525
131519 116490 344
518023 952920 525
420505 948233 525
217112 878053 525
394393 743611 509
383840 511230 449
103087 543822 470
175069 967818 525
41653 545995 470
764381 931552 525
835966 278928 509
137246 727651 509
543809 980795 525
95854 120918 354
28623 573720 470
956651 201037 525
703902 416305 509
467609 831528 509
443311 707545 509
672414 659349 442
604925 14201 470
805236 608875 509
927545 898599 476
812416 117006 509
522885 34944 470
766364 105396 509
309488 519628 470
262146 831322 509
12531 304623 443
868704 310453 525
288284 812976 509
844311 962807 507
622781 831507 509
619861 497411 470
401339 718228 509
3730 821722 509
948884 810613 525
668445 938601 525
400613 675754 509
242048 376646 441
978338 504541 525
246017 688950 509
619931 519419 452
196795 950858 525
937608 738880 525
419399 989051 525
165360 821750 509
509327 282298 449
96665 457 351
922872 88465 525
10671 304840 443
876178 372898 525
238381 376712 441
589817 540028 452
329922 180259 443
928350 803070 525
749811 824477 468
653291 265953 509
649201 531274 509
833079 437107 509
542398 506443 470
435112 946496 525
649543 100640 509
762606 695312 504
258119 183604 443
192951 531975 470
703073 97255 509
624482 818611 509
468620 901938 525
144979 928931 525
474386 884948 525
697941 801444 504
824360 461632 509
941603 161191 525
169209 666706 509
70872 918703 525
360798 407114 436
103802 556633 470
262375 527582 470
21915 22522 269
418655 526181 470
197624 760433 509
787134 449610 509
742226 34668 509
885284 96500 525
764344 625560 509
517833 161971 470
41428 310339 443
714173 367768 509
275843 281315 389
628002 939712 525
932287 799144 525
929621 17812 525
634715 930696 525
655881 714294 504
238641 179043 443
573611 570903 372
988650 177358 525
859394 109250 525
621118 389021 470
301913 16576 443
878620 932958 476
292640 264228 407
665167 236303 509
586456 117225 470
990388 205666 525
185898 560720 470
925939 3857 525
730981 142770 509
28894 320622 443
461197 612726 470
74549 233996 443
157032 20660 383
485025 373116 449
465477 135671 449
540244 113840 470
667292 139505 509
314314 965287 525
253364 556827 470
293019 138429 443
643317 294617 509
797105 527093 509
1611 480533 449
661200 977269 525
384678 513732 470
99691 772372 509
387210 371500 423
328537 720088 509
46557 751211 509
305987 90742 443
11226 69471 340
905327 927579 476
882829 688983 525
939246 926140 476
200378 998518 525
718109 162926 509
751647 132523 509
243358 442770 449
768396 184276 509
712457 929881 525
90575 740144 509
743267 29255 509
569185 442360 470
613395 193175 470
818300 73882 509
854030 441759 525
923836 351286 525
737981 907050 525
869941 210257 525
558049 636870 509
253499 873147 525
104583 227691 386
323002 399189 441
420019 595024 470
500170 735338 509
733370 335333 509
320989 509354 449
459108 685246 509
167401 936612 525
282564 41835 443
251733 248261 350
647906 371998 509
62984 990746 525
414977 609492 470
887437 395323 525
57685 314904 443
75625 771095 509
539366 456876 470
443488 536218 470
919476 162147 525
567654 69321 470
821130 677478 504
763065 36805 509
120526 588305 470
215782 231575 443
606893 546938 434
84567 244891 443
905638 377419 525
381964 485412 449
657493 444639 509
98898 158120 383
802945 602066 509
346365 820727 509
833921 865462 525
253645 46268 443
43635 199222 383
984498 537984 525
130718 447453 449
511167 766230 509
995170 493700 525
720532 827021 468
201396 191216 360
17636 757968 509
377523 469933 449
838819 989725 507
770375 296795 509
390061 959724 525
281964 842896 525
485674 169837 449
576003 293825 470
578324 130747 470
261937 228941 443
943422 703187 525
739161 390743 509
509253 319847 449
15536 967324 525
8764 451626 449
702013 218836 509
969783 468036 525
429141 393218 449
557476 733952 509
131395 396901 443
436206 383546 449
1724 612973 470
627485 717092 504
431422 592312 470
806576 577507 509
919357 82425 525
602342 380838 470
759790 4261 509
243266 698558 509
299469 539020 470
327138 419410 449
